<svg width="21" height="29" viewBox="0 0 21 29" fill="none" xmlns="http://www.w3.org/2000/svg">
<path d="M18.8694 10.9616C18.1193 8.9702 17.0256 7.12583 15.638 5.51242C13.2367 2.73271 10.0792 0.9375 7.59375 0.9375C7.44596 0.93761 7.30016 0.971532 7.1675 1.03667C7.03484 1.10181 6.91884 1.19643 6.82839 1.3133C6.73793 1.43017 6.67541 1.56619 6.64562 1.71094C6.61582 1.85569 6.61954 2.00534 6.65648 2.14844C7.49627 5.35742 5.75555 8.02572 3.91311 10.8502C2.38672 13.1898 0.8125 15.6062 0.8125 18.375C0.8125 23.7164 5.15855 28.0625 10.5 28.0625C15.8414 28.0625 20.1875 23.7164 20.1875 18.375C20.1875 15.7533 19.7443 13.2594 18.8694 10.9616ZM12.4575 24.3504C11.832 25.0164 11.0479 25.1562 10.5 25.1562C9.95205 25.1562 9.16797 25.0164 8.54252 24.3504C7.91707 23.6844 7.59375 22.6278 7.59375 21.2812C7.59375 19.7591 8.12777 18.6002 8.64363 17.4801C8.94334 16.8298 9.2491 16.1681 9.43074 15.4597C9.45003 15.3826 9.48797 15.3115 9.54122 15.2525C9.59447 15.1936 9.6614 15.1487 9.73612 15.1217C9.81083 15.0947 9.89103 15.0865 9.96965 15.0978C10.0483 15.1092 10.1229 15.1396 10.187 15.1866C10.7407 15.6151 11.2331 16.1174 11.6504 16.6797C12.7505 18.1328 13.4062 19.8536 13.4062 21.2812C13.4062 22.6278 13.0781 23.6892 12.4575 24.3504Z" fill="#FF0000"/>
</svg>
