<svg width="71" height="71" viewBox="0 0 71 71" fill="none" xmlns="http://www.w3.org/2000/svg">
<rect width="71" height="71" rx="20" fill="#FF1E1E" fill-opacity="0.08"/>
<g clip-path="url(#clip0)">
<path d="M30.8823 52.6212C30.1543 52.7691 29.4008 52.8468 28.6292 52.8468C22.4075 52.8468 17.3638 47.8031 17.3638 41.5813C17.3638 35.3596 22.4075 30.3159 28.6292 30.3159C29.4008 30.3159 30.1543 30.3937 30.8823 30.5414C25.7402 31.5852 21.8699 36.1312 21.8699 41.5813C21.8699 47.0315 25.7402 51.5774 30.8823 52.6212ZM46.4286 25.2089C40.3728 25.2089 35.4636 23.5949 35.4636 21.604C35.4636 19.613 40.3728 17.999 46.4286 17.999C46.8462 17.999 47.2581 18.007 47.6636 18.0219C45.9923 17.6265 44.0237 17.3982 41.9159 17.3982C35.86 17.3982 30.9509 19.2812 30.9509 21.604C30.9509 23.9267 35.86 25.8097 41.9159 25.8097C44.0237 25.8097 45.9923 25.5814 47.6636 25.186C47.2581 25.2009 46.8462 25.2089 46.4286 25.2089Z" fill="#FF1E1E" fill-opacity="0.33"/>
<path d="M41.9159 27.3112C38.8076 27.3112 35.863 26.8383 33.6245 25.9797C29.9913 24.586 29.4488 22.6395 29.4488 21.6033C29.4488 20.5671 29.9913 18.6205 33.6245 17.227C35.863 16.3684 38.8076 15.8955 41.9159 15.8955C45.0242 15.8955 47.9687 16.3684 50.2072 17.227C53.8405 18.6206 54.383 20.5671 54.383 21.6033C54.383 22.6395 53.8405 24.5861 50.2072 25.9797C47.9687 26.8383 45.0242 27.3112 41.9159 27.3112ZM41.9159 18.8996C39.2062 18.8996 36.5763 19.3123 34.7004 20.0318C33.0023 20.6832 32.4529 21.3719 32.4529 21.6033C32.4529 21.8348 33.0022 22.5235 34.7004 23.1749C36.5764 23.8943 39.2063 24.307 41.9159 24.307C44.6254 24.307 47.2555 23.8943 49.1314 23.1749C50.8295 22.5235 51.3789 21.8348 51.3789 21.6033C51.3789 21.3719 50.8296 20.6832 49.1314 20.0318C47.2555 19.3123 44.6255 18.8996 41.9159 18.8996ZM53.4247 52.19C54.1822 51.8518 54.5221 50.9636 54.1839 50.2061C53.8458 49.4485 52.9574 49.1084 52.2 49.4469C49.3865 50.7031 45.4566 51.3931 41.4161 51.3414C40.5887 51.3309 39.9055 51.9943 39.8947 52.8239C39.884 53.6534 40.5477 54.3345 41.3772 54.3452C41.5383 54.3473 41.6989 54.3484 41.8593 54.3484C46.2055 54.3483 50.2964 53.5866 53.4247 52.19ZM45.2097 47.5072C48.3057 47.215 51.1464 46.523 53.4247 45.5058C54.1822 45.1676 54.5221 44.2794 54.1839 43.5219C53.8458 42.7643 52.9574 42.4244 52.2 42.7627C50.2166 43.6482 47.7018 44.2546 44.9274 44.5165C44.1015 44.5944 43.4952 45.3271 43.5731 46.153C43.6466 46.9309 44.3008 47.514 45.0668 47.514C45.114 47.5139 45.1617 47.5117 45.2097 47.5072ZM45.6895 40.6992C48.5955 40.3837 51.2703 39.7085 53.4247 38.7466C54.1822 38.4083 54.5221 37.5201 54.1839 36.7626C53.8457 36.0051 52.9574 35.6651 52.2 36.0034C50.3276 36.8394 47.9641 37.4305 45.3652 37.7128C44.5405 37.8023 43.9445 38.5436 44.0341 39.3682C44.1177 40.1378 44.7687 40.7082 45.5256 40.7082C45.5796 40.7082 45.6345 40.7052 45.6895 40.6992ZM43.2568 34.0432C47.067 33.8952 50.6781 33.1385 53.4247 31.9122C54.1822 31.574 54.5221 30.6858 54.1839 29.9283C53.8458 29.1708 52.9574 28.8307 52.2 29.1691C49.7946 30.243 46.5771 30.9079 43.1402 31.0413C42.3113 31.0735 41.6653 31.7716 41.6976 32.6005C41.729 33.4096 42.3947 34.0444 43.1974 34.0444C43.2171 34.0442 43.2369 34.0439 43.2568 34.0432ZM28.6292 54.3482C21.5892 54.3482 15.8617 48.6207 15.8617 41.5807C15.8617 34.5407 21.5892 28.8132 28.6292 28.8132C35.6692 28.8132 41.3967 34.5407 41.3967 41.5807C41.3967 48.6207 35.6692 54.3482 28.6292 54.3482ZM28.6292 31.8173C23.2457 31.8173 18.8658 36.1971 18.8658 41.5807C18.8658 46.9643 23.2457 51.3441 28.6292 51.3441C34.0127 51.3441 38.3926 46.9643 38.3926 41.5807C38.3926 36.1971 34.0127 31.8173 28.6292 31.8173Z" fill="#FF1E1E"/>
<path d="M32.8349 43.8344C32.8349 42.8102 32.3803 41.8199 31.5875 41.1172C30.8324 40.4479 29.8352 40.0793 28.7794 40.0793C28.0515 40.0793 27.5026 39.7564 27.5026 39.3283C27.5026 38.9141 27.8395 38.5772 28.2537 38.5772C28.7872 38.5772 29.4361 38.6377 30.5631 39.0759C31.3363 39.3766 32.2068 38.9935 32.5075 38.2204C32.8081 37.4472 32.4251 36.5767 31.652 36.2761C31.1707 36.0888 30.7425 35.9512 30.3565 35.8495V35.5731C30.3565 34.7435 29.6841 34.071 28.8545 34.071C28.0249 34.071 27.3524 34.7435 27.3524 35.5731V35.6832C25.7158 36.088 24.4985 37.5683 24.4985 39.3283C24.4985 41.4691 26.3389 43.0834 28.7794 43.0834C29.3493 43.0834 29.8308 43.4273 29.8308 43.8344C29.8308 44.2416 29.4696 44.5855 29.0422 44.5855C28.7283 44.5855 27.6561 44.4831 26.4802 44.0157C25.7093 43.7095 24.836 44.086 24.5296 44.8568C24.2232 45.6277 24.5997 46.501 25.3707 46.8075C26.0581 47.0807 26.7403 47.2696 27.3524 47.3938V47.5896C27.3524 48.4192 28.0249 49.0916 28.8545 49.0916C29.6841 49.0916 30.3565 48.4192 30.3565 47.5896V47.3568C31.802 46.8264 32.8349 45.4478 32.8349 43.8344Z" fill="#353535"/>
</g>
<defs>
<clipPath id="clip0">
<rect width="38.5213" height="38.5213" fill="white" transform="translate(15.8617 15.8618)"/>
</clipPath>
</defs>
</svg>
